hw3/ALU/alu.vcd
$date
	Tue Nov  9 17:43:02 2021
$end
$version
	Icarus Verilog
$end
$timescale
	1ps
$end
$scope module test_alu $end
$var wire 1 ! rst_n $end
$var wire 1 " overflow $end
$var wire 1 # ovalid $end
$var wire 32 $ odata [31:0] $end
$var wire 1 % ivalid $end
$var wire 4 & inst [3:0] $end
$var wire 32 ' idata_b [31:0] $end
$var wire 32 ( idata_a [31:0] $end
$var wire 1 ) clk $end
$scope module u_alu $end
$var wire 32 * o_data [31:0] $end
$var wire 1 " o_overflow $end
$var wire 1 # o_valid $end
$var wire 32 + s_i_data_a [31:0] $end
$var wire 32 , s_i_data_b [31:0] $end
$var wire 1 - o_msb $end
$var wire 1 % i_valid $end
$var wire 1 ! i_rst_n $end
$var wire 4 . i_inst [3:0] $end
$var wire 32 / i_data_b [31:0] $end
$var wire 32 0 i_data_a [31:0] $end
$var wire 1 ) i_clk $end
$var wire 1 1 b_msb $end
$var wire 1 2 a_msb $end
$var reg 64 3 mul_tmp [63:0] $end
$var reg 32 4 o_data_r [31:0] $end
$var reg 32 5 o_data_w [31:0] $end
$var reg 1 6 o_overflow_r $end
$var reg 1 7 o_overflow_w $end
$var reg 1 8 o_valid_r $end
$var reg 1 9 o_valid_w $end
$upscope $end
$scope module u_alu_test $end
$var wire 32 : i_data [31:0] $end
$var wire 1 " i_overflow $end
$var wire 1 # i_valid $end
$var wire 1 ! i_rst_n $end
$var wire 1 ) i_clk $end
$var reg 6 ; cs [5:0] $end
$var reg 6 < ns [5:0] $end
$var reg 32 = o_data_a [31:0] $end
$var reg 32 > o_data_b [31:0] $end
$var reg 4 ? o_inst [3:0] $end
$var reg 1 % o_valid $end
$var integer 32 @ total_error [31:0] $end
$scope begin test_unit[0] $end
$scope module inst $end
$var wire 32 A i_data [31:0] $end
$var wire 1 " i_overflow $end
$var wire 1 B i_start $end
$var wire 1 # i_valid $end
$var wire 32 C o_data_a [31:0] $end
$var wire 32 D o_data_b [31:0] $end
$var wire 1 E o_valid $end
$var wire 1 F test_finish $end
$var wire 1 G output_overflow $end
$var wire 32 H output_data [31:0] $end
$var wire 4 I o_inst [3:0] $end
$var wire 1 J o_done $end
$var wire 32 K input_B [31:0] $end
$var wire 32 L input_A [31:0] $end
$var wire 1 ! i_rst_n $end
$var wire 1 ) i_clk $end
$var reg 3 M cs_ [2:0] $end
$var reg 3 N idx_r [2:0] $end
$var reg 3 O idx_w [2:0] $end
$var reg 3 P ns_ [2:0] $end
$var reg 32 Q o_data_a_r [31:0] $end
$var reg 32 R o_data_a_w [31:0] $end
$var reg 32 S o_data_b_r [31:0] $end
$var reg 32 T o_data_b_w [31:0] $end
$var reg 1 U o_valid_r $end
$var reg 1 V o_valid_w $end
$var integer 32 W error [31:0] $end
$upscope $end
$upscope $end
$scope begin test_unit[1] $end
$scope module inst $end
$var wire 32 X i_data [31:0] $end
$var wire 1 " i_overflow $end
$var wire 1 Y i_start $end
$var wire 1 # i_valid $end
$var wire 32 Z o_data_a [31:0] $end
$var wire 32 [ o_data_b [31:0] $end
$var wire 1 \ o_valid $end
$var wire 1 ] test_finish $end
$var wire 1 ^ output_overflow $end
$var wire 32 _ output_data [31:0] $end
$var wire 4 ` o_inst [3:0] $end
$var wire 1 a o_done $end
$var wire 32 b input_B [31:0] $end
$var wire 32 c input_A [31:0] $end
$var wire 1 ! i_rst_n $end
$var wire 1 ) i_clk $end
$var reg 3 d cs_ [2:0] $end
$var reg 3 e idx_r [2:0] $end
$var reg 3 f idx_w [2:0] $end
$var reg 3 g ns_ [2:0] $end
$var reg 32 h o_data_a_r [31:0] $end
$var reg 32 i o_data_a_w [31:0] $end
$var reg 32 j o_data_b_r [31:0] $end
$var reg 32 k o_data_b_w [31:0] $end
$var reg 1 l o_valid_r $end
$var reg 1 m o_valid_w $end
$var integer 32 n error [31:0] $end
$upscope $end
$upscope $end
$scope begin test_unit[2] $end
$scope module inst $end
$var wire 32 o i_data [31:0] $end
$var wire 1 " i_overflow $end
$var wire 1 p i_start $end
$var wire 1 # i_valid $end
$var wire 32 q o_data_a [31:0] $end
$var wire 32 r o_data_b [31:0] $end
$var wire 1 s o_valid $end
$var wire 1 t test_finish $end
$var wire 1 u output_overflow $end
$var wire 32 v output_data [31:0] $end
$var wire 4 w o_inst [3:0] $end
$var wire 1 x o_done $end
$var wire 32 y input_B [31:0] $end
$var wire 32 z input_A [31:0] $end
$var wire 1 ! i_rst_n $end
$var wire 1 ) i_clk $end
$var reg 3 { cs_ [2:0] $end
$var reg 3 | idx_r [2:0] $end
$var reg 3 } idx_w [2:0] $end
$var reg 3 ~ ns_ [2:0] $end
$var reg 32 !" o_data_a_r [31:0] $end
$var reg 32 "" o_data_a_w [31:0] $end
$var reg 32 #" o_data_b_r [31:0] $end
$var reg 32 $" o_data_b_w [31:0] $end
$var reg 1 %" o_valid_r $end
$var reg 1 &" o_valid_w $end
$var integer 32 '" error [31:0] $end
$upscope $end
$upscope $end
$scope begin test_unit[3] $end
$scope module inst $end
$var wire 32 (" i_data [31:0] $end
$var wire 1 " i_overflow $end
$var wire 1 )" i_start $end
$var wire 1 # i_valid $end
$var wire 32 *" o_data_a [31:0] $end
$var wire 32 +" o_data_b [31:0] $end
$var wire 1 ," o_valid $end
$var wire 1 -" test_finish $end
$var wire 1 ." output_overflow $end
$var wire 32 /" output_data [31:0] $end
$var wire 4 0" o_inst [3:0] $end
$var wire 1 1" o_done $end
$var wire 32 2" input_B [31:0] $end
$var wire 32 3" input_A [31:0] $end
$var wire 1 ! i_rst_n $end
$var wire 1 ) i_clk $end
$var reg 3 4" cs_ [2:0] $end
$var reg 3 5" idx_r [2:0] $end
$var reg 3 6" idx_w [2:0] $end
$var reg 3 7" ns_ [2:0] $end
$var reg 32 8" o_data_a_r [31:0] $end
$var reg 32 9" o_data_a_w [31:0] $end
$var reg 32 :" o_data_b_r [31:0] $end
$var reg 32 ;" o_data_b_w [31:0] $end
$var reg 1 <" o_valid_r $end
$var reg 1 =" o_valid_w $end
$var integer 32 >" error [31:0] $end
$upscope $end
$upscope $end
$scope begin test_unit[4] $end
$scope module inst $end
$var wire 32 ?" i_data [31:0] $end
$var wire 1 " i_overflow $end
$var wire 1 @" i_start $end
$var wire 1 # i_valid $end
$var wire 32 A" o_data_a [31:0] $end
$var wire 32 B" o_data_b [31:0] $end
$var wire 1 C" o_valid $end
$var wire 1 D" test_finish $end
$var wire 1 E" output_overflow $end
$var wire 32 F" output_data [31:0] $end
$var wire 4 G" o_inst [3:0] $end
$var wire 1 H" o_done $end
$var wire 32 I" input_B [31:0] $end
$var wire 32 J" input_A [31:0] $end
$var wire 1 ! i_rst_n $end
$var wire 1 ) i_clk $end
$var reg 3 K" cs_ [2:0] $end
$var reg 3 L" idx_r [2:0] $end
$var reg 3 M" idx_w [2:0] $end
$var reg 3 N" ns_ [2:0] $end
$var reg 32 O" o_data_a_r [31:0] $end
$var reg 32 P" o_data_a_w [31:0] $end
$var reg 32 Q" o_data_b_r [31:0] $end
$var reg 32 R" o_data_b_w [31:0] $end
$var reg 1 S" o_valid_r $end
$var reg 1 T" o_valid_w $end
$var integer 32 U" error [31:0] $end
$upscope $end
$upscope $end
$scope begin test_unit[5] $end
$scope module inst $end
$var wire 32 V" i_data [31:0] $end
$var wire 1 " i_overflow $end
$var wire 1 W" i_start $end
$var wire 1 # i_valid $end
$var wire 32 X" o_data_a [31:0] $end
$var wire 32 Y" o_data_b [31:0] $end
$var wire 1 Z" o_valid $end
$var wire 1 [" test_finish $end
$var wire 1 \" output_overflow $end
$var wire 32 ]" output_data [31:0] $end
$var wire 4 ^" o_inst [3:0] $end
$var wire 1 _" o_done $end
$var wire 32 `" input_B [31:0] $end
$var wire 32 a" input_A [31:0] $end
$var wire 1 ! i_rst_n $end
$var wire 1 ) i_clk $end
$var reg 3 b" cs_ [2:0] $end
$var reg 3 c" idx_r [2:0] $end
$var reg 3 d" idx_w [2:0] $end
$var reg 3 e" ns_ [2:0] $end
$var reg 32 f" o_data_a_r [31:0] $end
$var reg 32 g" o_data_a_w [31:0] $end
$var reg 32 h" o_data_b_r [31:0] $end
$var reg 32 i" o_data_b_w [31:0] $end
$var reg 1 j" o_valid_r $end
$var reg 1 k" o_valid_w $end
$var integer 32 l" error [31:0] $end
$upscope $end
$upscope $end
$scope begin test_unit[6] $end
$scope module inst $end
$var wire 32 m" i_data [31:0] $end
$var wire 1 " i_overflow $end
$var wire 1 n" i_start $end
$var wire 1 # i_valid $end
$var wire 32 o" o_data_a [31:0] $end
$var wire 32 p" o_data_b [31:0] $end
$var wire 1 q" o_valid $end
$var wire 1 r" test_finish $end
$var wire 1 s" output_overflow $end
$var wire 32 t" output_data [31:0] $end
$var wire 4 u" o_inst [3:0] $end
$var wire 1 v" o_done $end
$var wire 32 w" input_B [31:0] $end
$var wire 32 x" input_A [31:0] $end
$var wire 1 ! i_rst_n $end
$var wire 1 ) i_clk $end
$var reg 3 y" cs_ [2:0] $end
$var reg 3 z" idx_r [2:0] $end
$var reg 3 {" idx_w [2:0] $end
$var reg 3 |" ns_ [2:0] $end
$var reg 32 }" o_data_a_r [31:0] $end
$var reg 32 ~" o_data_a_w [31:0] $end
$var reg 32 !# o_data_b_r [31:0] $end
$var reg 32 "# o_data_b_w [31:0] $end
$var reg 1 ## o_valid_r $end
$var reg 1 $# o_valid_w $end
$var integer 32 %# error [31:0] $end
$upscope $end
$upscope $end
$scope begin test_unit[7] $end
$scope module inst $end
$var wire 32 &# i_data [31:0] $end
$var wire 1 " i_overflow $end
$var wire 1 '# i_start $end
$var wire 1 # i_valid $end
$var wire 32 (# o_data_a [31:0] $end
$var wire 32 )# o_data_b [31:0] $end
$var wire 1 *# o_valid $end
$var wire 1 +# test_finish $end
$var wire 1 ,# output_overflow $end
$var wire 32 -# output_data [31:0] $end
$var wire 4 .# o_inst [3:0] $end
$var wire 1 /# o_done $end
$var wire 32 0# input_B [31:0] $end
$var wire 32 1# input_A [31:0] $end
$var wire 1 ! i_rst_n $end
$var wire 1 ) i_clk $end
$var reg 3 2# cs_ [2:0] $end
$var reg 3 3# idx_r [2:0] $end
$var reg 3 4# idx_w [2:0] $end
$var reg 3 5# ns_ [2:0] $end
$var reg 32 6# o_data_a_r [31:0] $end
$var reg 32 7# o_data_a_w [31:0] $end
$var reg 32 8# o_data_b_r [31:0] $end
$var reg 32 9# o_data_b_w [31:0] $end
$var reg 1 :# o_valid_r $end
$var reg 1 ;# o_valid_w $end
$var integer 32 <# error [31:0] $end
$upscope $end
$upscope $end
$scope begin test_unit[8] $end
$scope module inst $end
$var wire 32 =# i_data [31:0] $end
$var wire 1 " i_overflow $end
$var wire 1 ># i_start $end
$var wire 1 # i_valid $end
$var wire 32 ?# o_data_a [31:0] $end
$var wire 32 @# o_data_b [31:0] $end
$var wire 1 A# o_valid $end
$var wire 1 B# test_finish $end
$var wire 1 C# output_overflow $end
$var wire 32 D# output_data [31:0] $end
$var wire 4 E# o_inst [3:0] $end
$var wire 1 F# o_done $end
$var wire 32 G# input_B [31:0] $end
$var wire 32 H# input_A [31:0] $end
$var wire 1 ! i_rst_n $end
$var wire 1 ) i_clk $end
$var reg 3 I# cs_ [2:0] $end
$var reg 3 J# idx_r [2:0] $end
$var reg 3 K# idx_w [2:0] $end
$var reg 3 L# ns_ [2:0] $end
$var reg 32 M# o_data_a_r [31:0] $end
$var reg 32 N# o_data_a_w [31:0] $end
$var reg 32 O# o_data_b_r [31:0] $end
$var reg 32 P# o_data_b_w [31:0] $end
$var reg 1 Q# o_valid_r $end
$var reg 1 R# o_valid_w $end
$var integer 32 S# error [31:0] $end
$upscope $end
$upscope $end
$scope begin test_unit[9] $end
$scope module inst $end
$var wire 32 T# i_data [31:0] $end
$var wire 1 " i_overflow $end
$var wire 1 U# i_start $end
$var wire 1 # i_valid $end
$var wire 32 V# o_data_a [31:0] $end
$var wire 32 W# o_data_b [31:0] $end
$var wire 1 X# o_valid $end
$var wire 1 Y# test_finish $end
$var wire 1 Z# output_overflow $end
$var wire 32 [# output_data [31:0] $end
$var wire 4 \# o_inst [3:0] $end
$var wire 1 ]# o_done $end
$var wire 32 ^# input_B [31:0] $end
$var wire 32 _# input_A [31:0] $end
$var wire 1 ! i_rst_n $end
$var wire 1 ) i_clk $end
$var reg 3 `# cs_ [2:0] $end
$var reg 3 a# idx_r [2:0] $end
$var reg 3 b# idx_w [2:0] $end
$var reg 3 c# ns_ [2:0] $end
$var reg 32 d# o_data_a_r [31:0] $end
$var reg 32 e# o_data_a_w [31:0] $end
$var reg 32 f# o_data_b_r [31:0] $end
$var reg 32 g# o_data_b_w [31:0] $end
$var reg 1 h# o_valid_r $end
$var reg 1 i# o_valid_w $end
$var integer 32 j# error [31:0] $end
$upscope $end
$upscope $end
$scope begin test_unit[10] $end
$scope module inst $end
$var wire 32 k# i_data [31:0] $end
$var wire 1 " i_overflow $end
$var wire 1 l# i_start $end
$var wire 1 # i_valid $end
$var wire 32 m# o_data_a [31:0] $end
$var wire 32 n# o_data_b [31:0] $end
$var wire 1 o# o_valid $end
$var wire 1 p# test_finish $end
$var wire 1 q# output_overflow $end
$var wire 32 r# output_data [31:0] $end
$var wire 4 s# o_inst [3:0] $end
$var wire 1 t# o_done $end
$var wire 32 u# input_B [31:0] $end
$var wire 32 v# input_A [31:0] $end
$var wire 1 ! i_rst_n $end
$var wire 1 ) i_clk $end
$var reg 3 w# cs_ [2:0] $end
$var reg 3 x# idx_r [2:0] $end
$var reg 3 y# idx_w [2:0] $end
$var reg 3 z# ns_ [2:0] $end
$var reg 32 {# o_data_a_r [31:0] $end
$var reg 32 |# o_data_a_w [31:0] $end
$var reg 32 }# o_data_b_r [31:0] $end
$var reg 32 ~# o_data_b_w [31:0] $end
$var reg 1 !$ o_valid_r $end
$var reg 1 "$ o_valid_w $end
$var integer 32 #$ error [31:0] $end
$upscope $end
$upscope $end
$scope begin test_unit[11] $end
$scope module inst $end
$var wire 32 $$ i_data [31:0] $end
$var wire 1 " i_overflow $end
$var wire 1 %$ i_start $end
$var wire 1 # i_valid $end
$var wire 32 &$ o_data_a [31:0] $end
$var wire 32 '$ o_data_b [31:0] $end
$var wire 1 ($ o_valid $end
$var wire 1 )$ test_finish $end
$var wire 1 *$ output_overflow $end
$var wire 32 +$ output_data [31:0] $end
$var wire 4 ,$ o_inst [3:0] $end
$var wire 1 -$ o_done $end
$var wire 32 .$ input_B [31:0] $end
$var wire 32 /$ input_A [31:0] $end
$var wire 1 ! i_rst_n $end
$var wire 1 ) i_clk $end
$var reg 3 0$ cs_ [2:0] $end
$var reg 3 1$ idx_r [2:0] $end
$var reg 3 2$ idx_w [2:0] $end
$var reg 3 3$ ns_ [2:0] $end
$var reg 32 4$ o_data_a_r [31:0] $end
$var reg 32 5$ o_data_a_w [31:0] $end
$var reg 32 6$ o_data_b_r [31:0] $end
$var reg 32 7$ o_data_b_w [31:0] $end
$var reg 1 8$ o_valid_r $end
$var reg 1 9$ o_valid_w $end
$var integer 32 :$ error [31:0] $end
$upscope $end
$upscope $end
$scope begin test_unit[12] $end
$scope module inst $end
$var wire 32 ;$ i_data [31:0] $end
$var wire 1 " i_overflow $end
$var wire 1 <$ i_start $end
$var wire 1 # i_valid $end
$var wire 32 =$ o_data_a [31:0] $end
$var wire 32 >$ o_data_b [31:0] $end
$var wire 1 ?$ o_valid $end
$var wire 1 @$ test_finish $end
$var wire 1 A$ output_overflow $end
$var wire 32 B$ output_data [31:0] $end
$var wire 4 C$ o_inst [3:0] $end
$var wire 1 D$ o_done $end
$var wire 32 E$ input_B [31:0] $end
$var wire 32 F$ input_A [31:0] $end
$var wire 1 ! i_rst_n $end
$var wire 1 ) i_clk $end
$var reg 3 G$ cs_ [2:0] $end
$var reg 3 H$ idx_r [2:0] $end
$var reg 3 I$ idx_w [2:0] $end
$var reg 3 J$ ns_ [2:0] $end
$var reg 32 K$ o_data_a_r [31:0] $end
$var reg 32 L$ o_data_a_w [31:0] $end
$var reg 32 M$ o_data_b_r [31:0] $end
$var reg 32 N$ o_data_b_w [31:0] $end
$var reg 1 O$ o_valid_r $end
$var reg 1 P$ o_valid_w $end
$var integer 32 Q$ error [31:0] $end
$upscope $end
$upscope $end
$scope begin test_unit[13] $end
$scope module inst $end
$var wire 32 R$ i_data [31:0] $end
$var wire 1 " i_overflow $end
$var wire 1 S$ i_start $end
$var wire 1 # i_valid $end
$var wire 32 T$ o_data_a [31:0] $end
$var wire 32 U$ o_data_b [31:0] $end
$var wire 1 V$ o_valid $end
$var wire 1 W$ test_finish $end
$var wire 1 X$ output_overflow $end
$var wire 32 Y$ output_data [31:0] $end
$var wire 4 Z$ o_inst [3:0] $end
$var wire 1 [$ o_done $end
$var wire 32 \$ input_B [31:0] $end
$var wire 32 ]$ input_A [31:0] $end
$var wire 1 ! i_rst_n $end
$var wire 1 ) i_clk $end
$var reg 3 ^$ cs_ [2:0] $end
$var reg 3 _$ idx_r [2:0] $end
$var reg 3 `$ idx_w [2:0] $end
$var reg 3 a$ ns_ [2:0] $end
$var reg 32 b$ o_data_a_r [31:0] $end
$var reg 32 c$ o_data_a_w [31:0] $end
$var reg 32 d$ o_data_b_r [31:0] $end
$var reg 32 e$ o_data_b_w [31:0] $end
$var reg 1 f$ o_valid_r $end
$var reg 1 g$ o_valid_w $end
$var integer 32 h$ error [31:0] $end
$upscope $end
$upscope $end
$scope begin test_unit[14] $end
$scope module inst $end
$var wire 32 i$ i_data [31:0] $end
$var wire 1 " i_overflow $end
$var wire 1 j$ i_start $end
$var wire 1 # i_valid $end
$var wire 32 k$ o_data_a [31:0] $end
$var wire 32 l$ o_data_b [31:0] $end
$var wire 1 m$ o_valid $end
$var wire 1 n$ test_finish $end
$var wire 1 o$ output_overflow $end
$var wire 32 p$ output_data [31:0] $end
$var wire 4 q$ o_inst [3:0] $end
$var wire 1 r$ o_done $end
$var wire 32 s$ input_B [31:0] $end
$var wire 32 t$ input_A [31:0] $end
$var wire 1 ! i_rst_n $end
$var wire 1 ) i_clk $end
$var reg 3 u$ cs_ [2:0] $end
$var reg 3 v$ idx_r [2:0] $end
$var reg 3 w$ idx_w [2:0] $end
$var reg 3 x$ ns_ [2:0] $end
$var reg 32 y$ o_data_a_r [31:0] $end
$var reg 32 z$ o_data_a_w [31:0] $end
$var reg 32 {$ o_data_b_r [31:0] $end
$var reg 32 |$ o_data_b_w [31:0] $end
$var reg 1 }$ o_valid_r $end
$var reg 1 ~$ o_valid_w $end
$var integer 32 !% error [31:0] $end
$upscope $end
$upscope $end
$upscope $end
$scope module u_clk $end
$var reg 1 ) clk $end
$var reg 1 ! rst_n $end
$upscope $end
$upscope $end
$enddefinitions $end
#0
$dumpvars
bx !%
0~$
x}$
b0 |$
bx {$
b0 z$
bx y$
bx x$
bx w$
bx v$
bx u$
bx t$
bx s$
xr$
bx q$
bx p$
xo$
xn$
xm$
bx l$
bx k$
xj$
bx i$
bx h$
0g$
xf$
b0 e$
bx d$
b0 c$
bx b$
bx a$
bx `$
bx _$
bx ^$
bx ]$
bx \$
x[$
bx Z$
bx Y$
xX$
xW$
xV$
bx U$
bx T$
xS$
bx R$
bx Q$
0P$
xO$
b0 N$
bx M$
b0 L$
bx K$
bx J$
bx I$
bx H$
bx G$
bx F$
bx E$
xD$
bx C$
bx B$
xA$
x@$
x?$
bx >$
bx =$
x<$
bx ;$
bx :$
09$
x8$
b0 7$
bx 6$
b0 5$
bx 4$
bx 3$
bx 2$
bx 1$
bx 0$
bx /$
bx .$
x-$
bx ,$
bx +$
x*$
x)$
x($
bx '$
bx &$
x%$
bx $$
bx #$
0"$
x!$
b0 ~#
bx }#
b0 |#
bx {#
bx z#
bx y#
bx x#
bx w#
bx v#
bx u#
xt#
bx s#
bx r#
xq#
xp#
xo#
bx n#
bx m#
xl#
bx k#
bx j#
0i#
xh#
b0 g#
bx f#
b0 e#
bx d#
bx c#
bx b#
bx a#
bx `#
bx _#
bx ^#
x]#
bx \#
bx [#
xZ#
xY#
xX#
bx W#
bx V#
xU#
bx T#
bx S#
0R#
xQ#
b0 P#
bx O#
b0 N#
bx M#
bx L#
bx K#
bx J#
bx I#
bx H#
bx G#
xF#
bx E#
bx D#
xC#
xB#
xA#
bx @#
bx ?#
x>#
bx =#
bx <#
0;#
x:#
b0 9#
bx 8#
b0 7#
bx 6#
bx 5#
bx 4#
bx 3#
bx 2#
bx 1#
bx 0#
x/#
bx .#
bx -#
x,#
x+#
x*#
bx )#
bx (#
x'#
bx &#
bx %#
0$#
x##
b0 "#
bx !#
b0 ~"
bx }"
bx |"
bx {"
bx z"
bx y"
bx x"
bx w"
xv"
bx u"
bx t"
xs"
xr"
xq"
bx p"
bx o"
xn"
bx m"
bx l"
0k"
xj"
b0 i"
bx h"
b0 g"
bx f"
bx e"
bx d"
bx c"
bx b"
bx a"
bx `"
x_"
bx ^"
bx ]"
x\"
x["
xZ"
bx Y"
bx X"
xW"
bx V"
bx U"
0T"
xS"
b0 R"
bx Q"
b0 P"
bx O"
bx N"
bx M"
bx L"
bx K"
bx J"
bx I"
xH"
bx G"
bx F"
xE"
xD"
xC"
bx B"
bx A"
x@"
bx ?"
bx >"
0="
x<"
b0 ;"
bx :"
b0 9"
bx 8"
bx 7"
bx 6"
bx 5"
bx 4"
bx 3"
bx 2"
x1"
bx 0"
bx /"
x."
x-"
x,"
bx +"
bx *"
x)"
bx ("
bx '"
0&"
x%"
b0 $"
bx #"
b0 ""
bx !"
bx ~
bx }
bx |
bx {
bx z
bx y
xx
bx w
bx v
xu
xt
xs
bx r
bx q
xp
bx o
bx n
0m
xl
b0 k
bx j
b0 i
bx h
bx g
bx f
bx e
bx d
bx c
bx b
xa
bx `
bx _
x^
x]
x\
bx [
bx Z
xY
bx X
bx W
0V
xU
b0 T
bx S
b0 R
bx Q
bx P
bx O
bx N
bx M
bx L
bx K
xJ
bx I
bx H
xG
xF
xE
bx D
bx C
xB
bx A
b0 @
bx ?
bx >
bx =
bx <
bx ;
bx :
09
x8
07
x6
b0 5
bx 4
bx 3
x2
x1
bx 0
bx /
bx .
0-
bx ,
bx +
bx *
1)
bx (
bx '
bx &
0%
bx $
x#
x"
1!
$end
#2500
b11 L
b1111111111111111111111111111101 K
b10000000000000000000000000000000 H
1G
b0 I
b0 O
b0x P
b11 c
b1 b
b10 _
0^
b1 `
b0 f
b0x g
b10000000000 z
b1000000000000 y
b10000000000000000000000 v
0u
b10 w
b0 }
b0x ~
b10000000000 3"
b1000000000000 2"
b1000000000000 /"
0."
b11 0"
b0 6"
b0x 7"
b10000000000 J"
b1000000000000 I"
b10000000000 F"
0E"
b100 G"
b0 M"
b0x N"
b11 a"
b1111111111111111111111111111101 `"
b10000000000000000000000000000000 ]"
0\"
b101 ^"
b0 d"
b0x e"
b11 x"
b1111111111111111111111111111101 w"
b10000000000000000000000000000110 t"
1s"
b110 u"
b0 {"
b0x |"
b11 1#
b1000 0#
b11000 -#
0,#
b111 .#
b0 4#
b0x 5#
b1000 H#
b11 G#
b1000 D#
0C#
b1000 E#
b0 K#
b0x L#
b1000 _#
b11 ^#
b11 [#
0Z#
b1001 \#
b0 b#
b0x c#
b1000 v#
b11 u#
b0 r#
0q#
b1010 s#
b0 y#
b0x z#
b1000 /$
b11 .$
b1011 +$
0*$
b1011 ,$
b0 2$
b0x 3$
b1000 F$
b11 E$
b1011 B$
0A$
b1100 C$
b0 I$
b0x J$
b1000 ]$
b0 \$
b11111111111111111111111111110111 Y$
0X$
b1101 Z$
b0 `$
b0x a$
b1000 t$
b0 s$
b10000000000000000000000000000 p$
0o$
b1110 q$
b0 w$
b0x x$
b1 <
0#
08
0"
06
b0 $
b0 *
b0 :
b0 A
b0 X
b0 o
b0 ("
b0 ?"
b0 V"
b0 m"
b0 &#
b0 =#
b0 T#
b0 k#
b0 $$
b0 ;$
b0 R$
b0 i$
b0 4
b0 D
b0 S
b0 C
b0 Q
0E
0U
0F
b0 N
0J
b0 M
b0 [
b0 j
b0 Z
b0 h
0\
0l
0]
b0 e
0a
b0 d
b0 r
b0 #"
b0 q
b0 !"
0s
0%"
0t
b0 |
0x
b0 {
b0 +"
b0 :"
b0 *"
b0 8"
0,"
0<"
0-"
b0 5"
01"
b0 4"
b0 B"
b0 Q"
b0 A"
b0 O"
0C"
0S"
0D"
b0 L"
0H"
b0 K"
b0 Y"
b0 h"
b0 X"
b0 f"
0Z"
0j"
0["
b0 c"
0_"
b0 b"
b0 p"
b0 !#
b0 o"
b0 }"
0q"
0##
0r"
b0 z"
0v"
b0 y"
b0 )#
b0 8#
b0 (#
b0 6#
0*#
0:#
0+#
b0 3#
0/#
b0 2#
b0 @#
b0 O#
b0 ?#
b0 M#
0A#
0Q#
0B#
b0 J#
0F#
b0 I#
b0 W#
b0 f#
b0 V#
b0 d#
0X#
0h#
0Y#
b0 a#
0]#
b0 `#
b0 n#
b0 }#
b0 m#
b0 {#
0o#
0!$
0p#
b0 x#
0t#
b0 w#
b0 '$
b0 6$
b0 &$
b0 4$
0($
08$
0)$
b0 1$
0-$
b0 0$
b0 >$
b0 M$
b0 =$
b0 K$
0?$
0O$
0@$
b0 H$
0D$
b0 G$
b0 U$
b0 d$
b0 T$
b0 b$
0V$
0f$
0W$
b0 _$
0[$
b0 ^$
b0 l$
b0 {$
b0 k$
b0 y$
0m$
0}$
0n$
b0 v$
0r$
b0 u$
b0 ;
0!
#5000
b1 <
b0 W
b0 n
b0 '"
b0 >"
b0 U"
b0 l"
b0 %#
b0 <#
b0 S#
b0 j#
b0 #$
b0 :$
b0 Q$
b0 h$
b0 !%
0)
#10000
1)
#15000
0)
#20000
1)
#25000
0)
#30000
1)
#35000
0)
#40000
1)
#45000
0)
#50000
1)
1!
#55000
01
02
b0 P
b0 g
b0 ~
b0 7"
b0 N"
b0 e"
b0 |"
b0 5#
b0 L#
b0 c#
b0 z#
b0 3$
b0 J$
b0 a$
b0 x$
b0 &
b0 .
b0 ?
b0 ,
b0 '
b0 /
b0 >
b0 +
b0 (
b0 0
b0 =
1B
b0x M
b0x d
b0x {
b0x 4"
b0x K"
b0x b"
b0x y"
b0x 2#
b0x I#
b0x `#
b0x w#
b0x 0$
b0x G$
b0x ^$
b0x u$
b1 ;
0)
#60000
1)
#65000
b0x x$
b0x a$
b0x J$
b0x 3$
b0x z#
b0x c#
b0x L#
b0x 5#
b0x |"
b0x e"
b0x N"
b0x 7"
b0x ~
b0x g
b1 P
b0 u$
b0 ^$
b0 G$
b0 0$
b0 w#
b0 `#
b0 I#
b0 2#
b0 y"
b0 b"
b0 K"
b0 4"
b0 {
b0 d
b0 M
0)
#70000
1)
#75000
b1111111111111111111111111111101 T
b11 R
1V
b10 P
b0 g
b0 ~
b0 7"
b0 N"
b0 e"
b0 |"
b0 5#
b0 L#
b0 c#
b0 z#
b0 3$
b0 J$
b0 a$
b0 x$
b1 M
b0x d
b0x {
b0x 4"
b0x K"
b0x b"
b0x y"
b0x 2#
b0x I#
b0x `#
b0x w#
b0x 0$
b0x G$
b0x ^$
b0x u$
0)
#80000
1)
#85000
17
1-
19
b10000000000000000000000000000000 5
b0x x$
b0x a$
b0x J$
b0x 3$
b0x z#
b0x c#
b0x L#
b0x 5#
b0x |"
b0x e"
b0x N"
b0x 7"
b0x ~
b0x g
1%
b1111111111111111111111111111101 ,
b1111111111111111111111111111101 '
b1111111111111111111111111111101 /
b1111111111111111111111111111101 >
b11 +
b11 (
b11 0
b11 =
b0 T
b0 R
0V
b0 u$
b0 ^$
b0 G$
b0 0$
b0 w#
b0 `#
b0 I#
b0 2#
b0 y"
b0 b"
b0 K"
b0 4"
b0 {
b0 d
b1111111111111111111111111111101 D
b1111111111111111111111111111101 S
b11 C
b11 Q
1E
1U
b10 M
0)
#90000
b1 O
b1 P
1#
18
1"
16
b10000000000000000000000000000000 $
b10000000000000000000000000000000 *
b10000000000000000000000000000000 :
b10000000000000000000000000000000 A
b10000000000000000000000000000000 X
b10000000000000000000000000000000 o
b10000000000000000000000000000000 ("
b10000000000000000000000000000000 ?"
b10000000000000000000000000000000 V"
b10000000000000000000000000000000 m"
b10000000000000000000000000000000 &#
b10000000000000000000000000000000 =#
b10000000000000000000000000000000 T#
b10000000000000000000000000000000 k#
b10000000000000000000000000000000 $$
b10000000000000000000000000000000 ;$
b10000000000000000000000000000000 R$
b10000000000000000000000000000000 i$
b10000000000000000000000000000000 4
1)
#95000
0-
09
07
b0 5
b0 ,
b0 '
b0 /
b0 >
b0 +
b0 (
b0 0
b0 =
0%
b101000001 L
b111001000 K
b1100001001 H
0G
b111001000 T
b101000001 R
1V
b10 P
b0 g
b0 ~
b0 7"
b0 N"
b0 e"
b0 |"
b0 5#
b0 L#
b0 c#
b0 z#
b0 3$
b0 J$
b0 a$
b0 x$
b0 D
b0 S
b0 C
b0 Q
0E
0U
b1 N
b1 M
b0x d
b0x {
b0x 4"
b0x K"
b0x b"
b0x y"
b0x 2#
b0x I#
b0x `#
b0x w#
b0x 0$
b0x G$
b0x ^$
b0x u$
0)
#100000
b111001000 T
b101000001 R
1V
0#
08
0"
06
b0 $
b0 *
b0 :
b0 A
b0 X
b0 o
b0 ("
b0 ?"
b0 V"
b0 m"
b0 &#
b0 =#
b0 T#
b0 k#
b0 $$
b0 ;$
b0 R$
b0 i$
b0 4
1)
