hw3/FPU/fpu.vcd
$date
	Tue Nov 23 16:13:59 2021
$end
$version
	Icarus Verilog
$end
$timescale
	1ps
$end
$scope module test_fpu $end
$var wire 1 ! rst_n $end
$var wire 1 " ovalid $end
$var wire 32 # odata [31:0] $end
$var wire 1 $ ivalid $end
$var wire 1 % inst $end
$var wire 32 & idata_b [31:0] $end
$var wire 32 ' idata_a [31:0] $end
$var wire 1 ( clk $end
$scope module u_clk $end
$var reg 1 ( clk $end
$var reg 1 ! rst_n $end
$upscope $end
$scope module u_fpu $end
$var wire 1 ( i_clk $end
$var wire 1 ! i_rst_n $end
$var wire 32 ) o_data [31:0] $end
$var wire 1 " o_valid $end
$var wire 1 $ i_valid $end
$var wire 1 % i_inst $end
$var wire 32 * i_data_b [31:0] $end
$var wire 32 + i_data_a [31:0] $end
$var reg 8 , i_exp_a [7:0] $end
$var reg 8 - i_exp_b [7:0] $end
$var reg 533 . i_frac_a [532:0] $end
$var reg 533 / i_frac_b [532:0] $end
$var reg 1 0 i_sign_a $end
$var reg 1 1 i_sign_b $end
$var reg 32 2 o_data_r [31:0] $end
$var reg 32 3 o_data_w [31:0] $end
$var reg 8 4 o_exp [7:0] $end
$var reg 533 5 o_frac [532:0] $end
$var reg 1 6 o_frac_of $end
$var reg 48 7 o_frac_short [47:0] $end
$var reg 1 8 o_sign $end
$var reg 1 9 o_valid_r $end
$var reg 1 : o_valid_w $end
$var reg 1 ; round $end
$var reg 1 < sticky $end
$var integer 32 = i [31:0] $end
$upscope $end
$scope module u_fpu_test $end
$var wire 1 ( i_clk $end
$var wire 32 > i_data [31:0] $end
$var wire 1 ! i_rst_n $end
$var wire 1 " i_valid $end
$var reg 2 ? cs [1:0] $end
$var reg 2 @ ns [1:0] $end
$var reg 32 A o_data_a [31:0] $end
$var reg 32 B o_data_b [31:0] $end
$var reg 1 % o_inst $end
$var reg 1 $ o_valid $end
$var integer 32 C total_error [31:0] $end
$scope begin test_unit[0] $end
$scope module inst $end
$var wire 1 ( i_clk $end
$var wire 32 D i_data [31:0] $end
$var wire 1 ! i_rst_n $end
$var wire 1 E i_start $end
$var wire 1 " i_valid $end
$var wire 32 F o_data_a [31:0] $end
$var wire 32 G o_data_b [31:0] $end
$var wire 1 H o_valid $end
$var wire 1 I test_finish $end
$var wire 32 J output_data [31:0] $end
$var wire 1 K o_inst $end
$var wire 1 L o_done $end
$var wire 32 M input_B [31:0] $end
$var wire 32 N input_A [31:0] $end
$var reg 3 O cs_ [2:0] $end
$var reg 4 P idx_r [3:0] $end
$var reg 4 Q idx_w [3:0] $end
$var reg 3 R ns_ [2:0] $end
$var reg 32 S o_data_a_r [31:0] $end
$var reg 32 T o_data_a_w [31:0] $end
$var reg 32 U o_data_b_r [31:0] $end
$var reg 32 V o_data_b_w [31:0] $end
$var reg 1 W o_valid_r $end
$var reg 1 X o_valid_w $end
$var integer 32 Y error [31:0] $end
$upscope $end
$upscope $end
$scope begin test_unit[1] $end
$scope module inst $end
$var wire 1 ( i_clk $end
$var wire 32 Z i_data [31:0] $end
$var wire 1 ! i_rst_n $end
$var wire 1 [ i_start $end
$var wire 1 " i_valid $end
$var wire 32 \ o_data_a [31:0] $end
$var wire 32 ] o_data_b [31:0] $end
$var wire 1 ^ o_valid $end
$var wire 1 _ test_finish $end
$var wire 32 ` output_data [31:0] $end
$var wire 1 a o_inst $end
$var wire 1 b o_done $end
$var wire 32 c input_B [31:0] $end
$var wire 32 d input_A [31:0] $end
$var reg 3 e cs_ [2:0] $end
$var reg 4 f idx_r [3:0] $end
$var reg 4 g idx_w [3:0] $end
$var reg 3 h ns_ [2:0] $end
$var reg 32 i o_data_a_r [31:0] $end
$var reg 32 j o_data_a_w [31:0] $end
$var reg 32 k o_data_b_r [31:0] $end
$var reg 32 l o_data_b_w [31:0] $end
$var reg 1 m o_valid_r $end
$var reg 1 n o_valid_w $end
$var integer 32 o error [31:0] $end
$upscope $end
$upscope $end
$upscope $end
$upscope $end
$enddefinitions $end
#0
$dumpvars
bx o
0n
xm
b0 l
bx k
b0 j
bx i
bx h
bx g
bx f
bx e
bx d
bx c
xb
xa
bx `
x_
x^
bx ]
bx \
x[
bx Z
bx Y
0X
xW
b0 V
bx U
b0 T
bx S
bx R
bx Q
bx P
bx O
bx N
bx M
xL
xK
bx J
xI
xH
bx G
bx F
xE
bx D
b0 C
bx B
bx A
bx @
bx ?
bx >
bx =
x<
x;
0:
x9
x8
bx 7
x6
bx 5
bx 4
b0 3
bx 2
x1
x0
bx /
bx .
bx -
bx ,
bx +
bx *
bx )
1(
bx '
bx &
x%
0$
bx #
x"
1!
$end
#2500
b111111100000000000000000000000 N
b111111100000000000000000000000 M
b1000000000000000000000000000000 J
0K
b0 Q
b0x R
b111111101100000000000000000000 d
b111111000000000000000000000000 c
b111111001100000000000000000000 `
1a
b0 g
b0x h
b1 @
0"
09
b0 #
b0 )
b0 >
b0 D
b0 Z
b0 2
b0 G
b0 U
b0 F
b0 S
0H
0W
0I
b0 P
0L
b0 O
b0 ]
b0 k
b0 \
b0 i
0^
0m
0_
b0 f
0b
b0 e
b0 ?
0!
#5000
b1 @
b0 Y
b0 o
0(
#10000
1(
#15000
0(
#20000
1(
#25000
0(
#30000
1(
#35000
0(
#40000
1(
#45000
0(
#50000
1(
1!
#55000
b0 R
b0 h
0%
b0 &
b0 *
b0 B
b0 '
b0 +
b0 A
1E
b0x O
b0x e
b1 ?
0(
#60000
1(
#65000
b0x h
b1 R
b0 e
b0 O
0(
#70000
1(
#75000
b111111100000000000000000000000 V
b111111100000000000000000000000 T
1X
b10 R
b0 h
b1 O
b0x e
0(
#80000
1(
#85000
1:
b1000000000000000000000000000000 3
b111111100 =
0<
0;
08
16
b0 5
b10000000 4
b10000000000000000000000000000000000000000000000000000000000000000000000000000000000000000000000000000000000000000000000000000000000000000000000000000000000000000000000000000000000000000000000000000000000000000000000000000000000000000000000000000000000000000000000000000000000000000000000000000000000000000000000000000000000000000000000000000000000000000000000000000000000000000000000000000000000000000000000000000000000000000000000000000000000000000000000000000000000000000000000000000000000000000000000000000000000000000000000000000 /
b1111111 -
01
b10000000000000000000000000000000000000000000000000000000000000000000000000000000000000000000000000000000000000000000000000000000000000000000000000000000000000000000000000000000000000000000000000000000000000000000000000000000000000000000000000000000000000000000000000000000000000000000000000000000000000000000000000000000000000000000000000000000000000000000000000000000000000000000000000000000000000000000000000000000000000000000000000000000000000000000000000000000000000000000000000000000000000000000000000000000000000000000000000000 .
b1111111 ,
00
b0x h
1$
b111111100000000000000000000000 &
b111111100000000000000000000000 *
b111111100000000000000000000000 B
b111111100000000000000000000000 '
b111111100000000000000000000000 +
b111111100000000000000000000000 A
b0 V
b0 T
0X
b0 e
b111111100000000000000000000000 G
b111111100000000000000000000000 U
b111111100000000000000000000000 F
b111111100000000000000000000000 S
1H
1W
b10 O
0(
#90000
b1 Q
b1 R
1"
19
b1000000000000000000000000000000 #
b1000000000000000000000000000000 )
b1000000000000000000000000000000 >
b1000000000000000000000000000000 D
b1000000000000000000000000000000 Z
b1000000000000000000000000000000 2
1(
#95000
0:
b0 3
b0 &
b0 *
b0 B
b0 '
b0 +
b0 A
0$
b111111101100000000000000000000 N
b111111000000000000000000000000 M
b111111111100000000000000000000 J
b111111000000000000000000000000 V
b111111101100000000000000000000 T
1X
b10 R
b0 h
b0 G
b0 U
b0 F
b0 S
0H
0W
b1 P
b1 O
b0x e
0(
#100000
b111111000000000000000000000000 V
b111111101100000000000000000000 T
1X
0"
09
b0 #
b0 )
b0 >
b0 D
b0 Z
b0 2
1(
#105000
1:
b111111111100000000000000000000 3
b111111100 =
06
b11110000000000000000000000000000000000000000000000000000000000000000000000000000000000000000000000000000000000000000000000000000000000000000000000000000000000000000000000000000000000000000000000000000000000000000000000000000000000000000000000000000000000000000000000000000000000000000000000000000000000000000000000000000000000000000000000000000000000000000000000000000000000000000000000000000000000000000000000000000000000000000000000000000000000000000000000000000000000000000000000000000000000000000000000000000000000000000000000000 5
b1111111 4
b1000000000000000000000000000000000000000000000000000000000000000000000000000000000000000000000000000000000000000000000000000000000000000000000000000000000000000000000000000000000000000000000000000000000000000000000000000000000000000000000000000000000000000000000000000000000000000000000000000000000000000000000000000000000000000000000000000000000000000000000000000000000000000000000000000000000000000000000000000000000000000000000000000000000000000000000000000000000000000000000000000000000000000000000000000000000000000000000000000 /
b1111110 -
b10110000000000000000000000000000000000000000000000000000000000000000000000000000000000000000000000000000000000000000000000000000000000000000000000000000000000000000000000000000000000000000000000000000000000000000000000000000000000000000000000000000000000000000000000000000000000000000000000000000000000000000000000000000000000000000000000000000000000000000000000000000000000000000000000000000000000000000000000000000000000000000000000000000000000000000000000000000000000000000000000000000000000000000000000000000000000000000000000000 .
b0x h
1$
b111111000000000000000000000000 &
b111111000000000000000000000000 *
b111111000000000000000000000000 B
b111111101100000000000000000000 '
b111111101100000000000000000000 +
b111111101100000000000000000000 A
b0 V
b0 T
0X
b0 e
b111111000000000000000000000000 G
b111111000000000000000000000000 U
b111111101100000000000000000000 F
b111111101100000000000000000000 S
1H
1W
b10 O
0(
#110000
b10 Q
b1 R
1"
19
b111111111100000000000000000000 #
b111111111100000000000000000000 )
b111111111100000000000000000000 >
b111111111100000000000000000000 D
b111111111100000000000000000000 Z
b111111111100000000000000000000 2
1(
#115000
0:
b0 3
b0 &
b0 *
b0 B
b0 '
b0 +
b0 A
0$
b111111101101001111110111110100 N
b111101000000001010110111110101 M
b111111101110010000001101100100 J
b111101000000001010110111110101 V
b111111101101001111110111110100 T
1X
b10 R
b0 h
b0 G
b0 U
b0 F
b0 S
0H
0W
b10 P
b1 O
b0x e
0(
#120000
b111101000000001010110111110101 V
b111111101101001111110111110100 T
1X
0"
09
b0 #
b0 )
b0 >
b0 D
b0 Z
b0 2
1(
#125000
1:
b111111101110010000001101100100 3
1<
b111111100 =
1;
b111001000000110110010000000000000000000000000000000000000000000000000000000000000000000000000000000000000000000000000000000000000000000000000000000000000000000000000000000000000000000000000000000000000000000000000000000000000000000000000000000000000000000000000000000000000000000000000000000000000000000000000000000000000000000000000000000000000000000000000000000000000000000000000000000000000000000000000000000000000000000000000000000000000000000000000000000000000000000000000000000000000000000000000000000000000000000000000000000 5
b100000001010110111110101000000000000000000000000000000000000000000000000000000000000000000000000000000000000000000000000000000000000000000000000000000000000000000000000000000000000000000000000000000000000000000000000000000000000000000000000000000000000000000000000000000000000000000000000000000000000000000000000000000000000000000000000000000000000000000000000000000000000000000000000000000000000000000000000000000000000000000000000000000000000000000000000000000000000000000000000000000000000000000000000000000000000000000000000 /
b1111010 -
b10110100111111011111010000000000000000000000000000000000000000000000000000000000000000000000000000000000000000000000000000000000000000000000000000000000000000000000000000000000000000000000000000000000000000000000000000000000000000000000000000000000000000000000000000000000000000000000000000000000000000000000000000000000000000000000000000000000000000000000000000000000000000000000000000000000000000000000000000000000000000000000000000000000000000000000000000000000000000000000000000000000000000000000000000000000000000000000000000000 .
b0x h
1$
b111101000000001010110111110101 &
b111101000000001010110111110101 *
b111101000000001010110111110101 B
b111111101101001111110111110100 '
b111111101101001111110111110100 +
b111111101101001111110111110100 A
b0 V
b0 T
0X
b0 e
b111101000000001010110111110101 G
b111101000000001010110111110101 U
b111111101101001111110111110100 F
b111111101101001111110111110100 S
1H
1W
b10 O
0(
#130000
b11 Q
b1 R
1"
19
b111111101110010000001101100100 #
b111111101110010000001101100100 )
b111111101110010000001101100100 >
b111111101110010000001101100100 D
b111111101110010000001101100100 Z
b111111101110010000001101100100 2
1(
#135000
0:
b0 3
b0 &
b0 *
b0 B
b0 '
b0 +
b0 A
0$
b111011010011011110001100100010 N
b111111101101001111110111110100 M
b111111101101010110010011100110 J
b111111101101001111110111110100 V
b111011010011011110001100100010 T
1X
b10 R
b0 h
b0 G
b0 U
b0 F
b0 S
0H
0W
b11 P
b1 O
b0x e
0(
#140000
b111111101101001111110111110100 V
b111011010011011110001100100010 T
1X
0"
09
b0 #
b0 )
b0 >
b0 D
b0 Z
b0 2
1(
#145000
1:
b111111101101010110010011100110 3
b111111100 =
1<
b110101011001001110011000000000000000000000000000000000000000000000000000000000000000000000000000000000000000000000000000000000000000000000000000000000000000000000000000000000000000000000000000000000000000000000000000000000000000000000000000000000000000000000000000000000000000000000000000000000000000000000000000000000000000000000000000000000000000000000000000000000000000000000000000000000000000000000000000000000000000000000000000000000000000000000000000000000000000000000000000000000000000000000000000000000000000000000000000000 5
b10110100111111011111010000000000000000000000000000000000000000000000000000000000000000000000000000000000000000000000000000000000000000000000000000000000000000000000000000000000000000000000000000000000000000000000000000000000000000000000000000000000000000000000000000000000000000000000000000000000000000000000000000000000000000000000000000000000000000000000000000000000000000000000000000000000000000000000000000000000000000000000000000000000000000000000000000000000000000000000000000000000000000000000000000000000000000000000000000000 /
b1111111 -
b11001101111000110010001000000000000000000000000000000000000000000000000000000000000000000000000000000000000000000000000000000000000000000000000000000000000000000000000000000000000000000000000000000000000000000000000000000000000000000000000000000000000000000000000000000000000000000000000000000000000000000000000000000000000000000000000000000000000000000000000000000000000000000000000000000000000000000000000000000000000000000000000000000000000000000000000000000000000000000000000000000000000000000000000000000000000000000000 .
b1110110 ,
b0x h
1$
b111111101101001111110111110100 &
b111111101101001111110111110100 *
b111111101101001111110111110100 B
b111011010011011110001100100010 '
b111011010011011110001100100010 +
b111011010011011110001100100010 A
b0 V
b0 T
0X
b0 e
b111111101101001111110111110100 G
b111111101101001111110111110100 U
b111011010011011110001100100010 F
b111011010011011110001100100010 S
1H
1W
b10 O
0(
#150000
b100 Q
b1 R
1"
19
b111111101101010110010011100110 #
b111111101101010110010011100110 )
b111111101101010110010011100110 >
b111111101101010110010011100110 D
b111111101101010110010011100110 Z
b111111101101010110010011100110 2
1(
#155000
0:
b0 3
b0 &
b0 *
b0 B
b0 '
b0 +
b0 A
0$
b111111101101001111110111110100 V
b111011010011011110001100100010 T
1X
b10 R
b0 h
b0 G
b0 U
b0 F
b0 S
0H
0W
b100 P
b1 O
b0x e
0(
#160000
b111111101101001111110111110100 V
b111011010011011110001100100010 T
1X
0"
09
b0 #
b0 )
b0 >
b0 D
b0 Z
b0 2
1(
#165000
1:
b111111101101010110010011100110 3
b111111100 =
1<
b110101011001001110011000000000000000000000000000000000000000000000000000000000000000000000000000000000000000000000000000000000000000000000000000000000000000000000000000000000000000000000000000000000000000000000000000000000000000000000000000000000000000000000000000000000000000000000000000000000000000000000000000000000000000000000000000000000000000000000000000000000000000000000000000000000000000000000000000000000000000000000000000000000000000000000000000000000000000000000000000000000000000000000000000000000000000000000000000000 5
b11001101111000110010001000000000000000000000000000000000000000000000000000000000000000000000000000000000000000000000000000000000000000000000000000000000000000000000000000000000000000000000000000000000000000000000000000000000000000000000000000000000000000000000000000000000000000000000000000000000000000000000000000000000000000000000000000000000000000000000000000000000000000000000000000000000000000000000000000000000000000000000000000000000000000000000000000000000000000000000000000000000000000000000000000000000000000000000 .
b0x h
1$
b111111101101001111110111110100 &
b111111101101001111110111110100 *
b111111101101001111110111110100 B
b111011010011011110001100100010 '
b111011010011011110001100100010 +
b111011010011011110001100100010 A
b0 V
b0 T
0X
b0 e
b111111101101001111110111110100 G
b111111101101001111110111110100 U
b111011010011011110001100100010 F
b111011010011011110001100100010 S
1H
1W
b10 O
0(
#170000
b101 Q
b1 R
1"
19
b111111101101010110010011100110 #
b111111101101010110010011100110 )
b111111101101010110010011100110 >
b111111101101010110010011100110 D
b111111101101010110010011100110 Z
b111111101101010110010011100110 2
1(
#175000
0:
b0 3
b0 &
b0 *
b0 B
b0 '
b0 +
b0 A
0$
b10111011010011011110001100100010 N
b111111101101001001011100000010 J
b111111101101001111110111110100 V
b10111011010011011110001100100010 T
1X
b10 R
b0 h
b0 G
b0 U
b0 F
b0 S
0H
0W
b101 P
b1 O
b0x e
0(
#180000
b111111101101001111110111110100 V
b10111011010011011110001100100010 T
1X
0"
09
b0 #
b0 )
b0 >
b0 D
b0 Z
b0 2
1(
#185000
1:
b111111101101001001011100000010 3
b111111100 =
1<
0;
b10110100100101110000001001101111000000000000000000000000000000000000000000000000000000000000000000000000000000000000000000000000000000000000000000000000000000000000000000000000000000000000000000000000000000000000000000000000000000000000000000000000000000000000000000000000000000000000000000000000000000000000000000000000000000000000000000000000000000000000000000000000000000000000000000000000000000000000000000000000000000000000000000000000000000000000000000000000000000000000000000000000000000000000000000000000000000000000000000000 5
b11001101111000110010001000000000000000000000000000000000000000000000000000000000000000000000000000000000000000000000000000000000000000000000000000000000000000000000000000000000000000000000000000000000000000000000000000000000000000000000000000000000000000000000000000000000000000000000000000000000000000000000000000000000000000000000000000000000000000000000000000000000000000000000000000000000000000000000000000000000000000000000000000000000000000000000000000000000000000000000000000000000000000000000000000000000000000000000 .
10
b0x h
1$
b111111101101001111110111110100 &
b111111101101001111110111110100 *
b111111101101001111110111110100 B
b10111011010011011110001100100010 '
b10111011010011011110001100100010 +
b10111011010011011110001100100010 A
b0 V
b0 T
0X
b0 e
b111111101101001111110111110100 G
b111111101101001111110111110100 U
b10111011010011011110001100100010 F
b10111011010011011110001100100010 S
1H
1W
b10 O
0(
#190000
b110 Q
b1 R
1"
19
b111111101101001001011100000010 #
b111111101101001001011100000010 )
b111111101101001001011100000010 >
b111111101101001001011100000010 D
b111111101101001001011100000010 Z
b111111101101001001011100000010 2
1(
#195000
0:
b0 3
b0 &
b0 *
b0 B
b0 '
b0 +
b0 A
0$
b111011010011011110001100100010 N
b10111111101101001111110111110100 M
b10111111101101001001011100000010 J
b10111111101101001111110111110100 V
b111011010011011110001100100010 T
1X
b10 R
b0 h
b0 G
b0 U
b0 F
b0 S
0H
0W
b110 P
b1 O
b0x e
0(
#200000
b10111111101101001111110111110100 V
b111011010011011110001100100010 T
1X
0"
09
b0 #
b0 )
b0 >
b0 D
b0 Z
b0 2
1(
#205000
1:
b10111111101101001001011100000010 3
b111111100 =
1<
18
11
b11001101111000110010001000000000000000000000000000000000000000000000000000000000000000000000000000000000000000000000000000000000000000000000000000000000000000000000000000000000000000000000000000000000000000000000000000000000000000000000000000000000000000000000000000000000000000000000000000000000000000000000000000000000000000000000000000000000000000000000000000000000000000000000000000000000000000000000000000000000000000000000000000000000000000000000000000000000000000000000000000000000000000000000000000000000000000000000 .
00
b0x h
1$
b10111111101101001111110111110100 &
b10111111101101001111110111110100 *
b10111111101101001111110111110100 B
b111011010011011110001100100010 '
b111011010011011110001100100010 +
b111011010011011110001100100010 A
b0 V
b0 T
0X
b0 e
b10111111101101001111110111110100 G
b10111111101101001111110111110100 U
b111011010011011110001100100010 F
b111011010011011110001100100010 S
1H
1W
b10 O
0(
#210000
b111 Q
b1 R
1"
19
b10111111101101001001011100000010 #
b10111111101101001001011100000010 )
b10111111101101001001011100000010 >
b10111111101101001001011100000010 D
b10111111101101001001011100000010 Z
b10111111101101001001011100000010 2
1(
#215000
0:
b0 3
b0 &
b0 *
b0 B
b0 '
b0 +
b0 A
0$
b10111111101101001111110111110100 N
b111101000000001010110111110101 M
b10111111101100001111100010000100 J
b111101000000001010110111110101 V
b10111111101101001111110111110100 T
1X
b10 R
b0 h
b0 G
b0 U
b0 F
b0 S
0H
0W
b111 P
b1 O
b0x e
0(
#220000
b111101000000001010110111110101 V
b10111111101101001111110111110100 T
1X
0"
09
b0 #
b0 )
b0 >
b0 D
b0 Z
b0 2
1(
#225000
1:
b10111111101100001111100010000100 3
b111111100 =
1<
b10110000111110001000010001011000000000000000000000000000000000000000000000000000000000000000000000000000000000000000000000000000000000000000000000000000000000000000000000000000000000000000000000000000000000000000000000000000000000000000000000000000000000000000000000000000000000000000000000000000000000000000000000000000000000000000000000000000000000000000000000000000000000000000000000000000000000000000000000000000000000000000000000000000000000000000000000000000000000000000000000000000000000000000000000000000000000000000000000000 5
b100000001010110111110101000000000000000000000000000000000000000000000000000000000000000000000000000000000000000000000000000000000000000000000000000000000000000000000000000000000000000000000000000000000000000000000000000000000000000000000000000000000000000000000000000000000000000000000000000000000000000000000000000000000000000000000000000000000000000000000000000000000000000000000000000000000000000000000000000000000000000000000000000000000000000000000000000000000000000000000000000000000000000000000000000000000000000000000000 /
b1111010 -
01
b10110100111111011111010000000000000000000000000000000000000000000000000000000000000000000000000000000000000000000000000000000000000000000000000000000000000000000000000000000000000000000000000000000000000000000000000000000000000000000000000000000000000000000000000000000000000000000000000000000000000000000000000000000000000000000000000000000000000000000000000000000000000000000000000000000000000000000000000000000000000000000000000000000000000000000000000000000000000000000000000000000000000000000000000000000000000000000000000000000 .
b1111111 ,
10
b0x h
1$
b111101000000001010110111110101 &
b111101000000001010110111110101 *
b111101000000001010110111110101 B
b10111111101101001111110111110100 '
b10111111101101001111110111110100 +
b10111111101101001111110111110100 A
b0 V
b0 T
0X
b0 e
b111101000000001010110111110101 G
b111101000000001010110111110101 U
b10111111101101001111110111110100 F
b10111111101101001111110111110100 S
1H
1W
b10 O
0(
#230000
b1000 Q
b1 R
1"
19
b10111111101100001111100010000100 #
b10111111101100001111100010000100 )
b10111111101100001111100010000100 >
b10111111101100001111100010000100 D
b10111111101100001111100010000100 Z
b10111111101100001111100010000100 2
1(
#235000
0:
b0 3
b0 &
b0 *
b0 B
b0 '
b0 +
b0 A
0$
b111111101101001111110111110100 N
b10111101000000001010110111110101 M
b111111101100001111100010000100 J
b10111101000000001010110111110101 V
b111111101101001111110111110100 T
1X
b10 R
b0 h
b0 G
b0 U
b0 F
b0 S
0H
0W
b1000 P
b1 O
b0x e
0(
#240000
b10111101000000001010110111110101 V
b111111101101001111110111110100 T
1X
0"
09
b0 #
b0 )
b0 >
b0 D
b0 Z
b0 2
1(
#245000
1:
b111111101100001111100010000100 3
b111111100 =
1<
08
b100000001010110111110101000000000000000000000000000000000000000000000000000000000000000000000000000000000000000000000000000000000000000000000000000000000000000000000000000000000000000000000000000000000000000000000000000000000000000000000000000000000000000000000000000000000000000000000000000000000000000000000000000000000000000000000000000000000000000000000000000000000000000000000000000000000000000000000000000000000000000000000000000000000000000000000000000000000000000000000000000000000000000000000000000000000000000000000000 /
11
00
b0x h
1$
b10111101000000001010110111110101 &
b10111101000000001010110111110101 *
b10111101000000001010110111110101 B
b111111101101001111110111110100 '
b111111101101001111110111110100 +
b111111101101001111110111110100 A
b0 V
b0 T
0X
b0 e
b10111101000000001010110111110101 G
b10111101000000001010110111110101 U
b111111101101001111110111110100 F
b111111101101001111110111110100 S
1H
1W
b10 O
0(
#250000
b1001 Q
b1 R
1"
19
b111111101100001111100010000100 #
b111111101100001111100010000100 )
b111111101100001111100010000100 >
b111111101100001111100010000100 D
b111111101100001111100010000100 Z
b111111101100001111100010000100 2
1(
#255000
0:
b0 3
b0 &
b0 *
b0 B
b0 '
b0 +
b0 A
0$
b110111011011010011101011010110 N
b10111101000000001001111100100001 J
b10111101000000001010110111110101 V
b110111011011010011101011010110 T
1X
b10 R
b0 h
b0 G
b0 U
b0 F
b0 S
0H
0W
1I
b1001 P
b1 O
b0x e
0(
#260000
b10111101000000001010110111110101 V
b110111011011010011101011010110 T
1X
0"
09
b0 #
b0 )
b0 >
b0 D
b0 Z
b0 2
1(
#265000
1:
b10111101000000001001111100100001 3
b111111100 =
1<
18
b10000000100111110010000101010010101000000000000000000000000000000000000000000000000000000000000000000000000000000000000000000000000000000000000000000000000000000000000000000000000000000000000000000000000000000000000000000000000000000000000000000000000000000000000000000000000000000000000000000000000000000000000000000000000000000000000000000000000000000000000000000000000000000000000000000000000000000000000000000000000000000000000000000000000000000000000000000000000000000000000000000000000000000000000000000000000000000000000000000 5
b1111010 4
b10000000101011011111010100000000000000000000000000000000000000000000000000000000000000000000000000000000000000000000000000000000000000000000000000000000000000000000000000000000000000000000000000000000000000000000000000000000000000000000000000000000000000000000000000000000000000000000000000000000000000000000000000000000000000000000000000000000000000000000000000000000000000000000000000000000000000000000000000000000000000000000000000000000000000000000000000000000000000000000000000000000000000000000000000000000000000000000000000000 /
b11101101001110101101011000000000000000000000000000000000000000000000000000000000000000000000000000000000000000000000000000000000000000000000000000000000000000000000000000000000000000000000000000000000000000000000000000000000000000000000000000000000000000000000000000000000000000000000000000000000000000000000000000000000000000000000000000000000000000000000000000000000000000000000000000000000000000000000000000000000000000000000000000000000000000000000000000000000000000000000000000000000000000000000000000000000000000000 .
b1101110 ,
b0x h
1$
b10111101000000001010110111110101 &
b10111101000000001010110111110101 *
b10111101000000001010110111110101 B
b110111011011010011101011010110 '
b110111011011010011101011010110 +
b110111011011010011101011010110 A
b0 V
b0 T
0X
b0 e
b10111101000000001010110111110101 G
b10111101000000001010110111110101 U
b110111011011010011101011010110 F
b110111011011010011101011010110 S
1H
1W
b10 O
0(
#270000
b11 R
1"
19
b10111101000000001001111100100001 #
b10111101000000001001111100100001 )
b10111101000000001001111100100001 >
b10111101000000001001111100100001 D
b10111101000000001001111100100001 Z
b10111101000000001001111100100001 2
1(
#275000
0:
b0 3
b0 &
b0 *
b0 B
b0 '
b0 +
b0 A
0$
b100 R
b0 h
b0 G
b0 U
b0 F
b0 S
0H
0W
b11 O
b0x e
0(
#280000
0"
09
b0 #
b0 )
b0 >
b0 D
b0 Z
b0 2
1(
#285000
b0x h
b10 @
b0 e
1L
b100 O
0(
#290000
1(
#295000
b0 h
1%
1[
b0x e
b10 ?
0(
#300000
1(
#305000
b1 h
b0 e
0(
#310000
1(
#315000
b111111000000000000000000000000 l
b111111101100000000000000000000 j
1n
b10 h
b1 e
0(
#320000
1(
#325000
b111111001100000000000000000000 3
b10111 =
0<
08
b10110000000000000000000000000000000000000000000 7
b1111110 4
1:
b10000000000000000000000000000000000000000000000000000000000000000000000000000000000000000000000000000000000000000000000000000000000000000000000000000000000000000000000000000000000000000000000000000000000000000000000000000000000000000000000000000000000000000000000000000000000000000000000000000000000000000000000000000000000000000000000000000000000000000000000000000000000000000000000000000000000000000000000000000000000000000000000000000000000000000000000000000000000000000000000000000000000000000000000000000000000000000000000000000 /
b1111110 -
01
b10110000000000000000000000000000000000000000000000000000000000000000000000000000000000000000000000000000000000000000000000000000000000000000000000000000000000000000000000000000000000000000000000000000000000000000000000000000000000000000000000000000000000000000000000000000000000000000000000000000000000000000000000000000000000000000000000000000000000000000000000000000000000000000000000000000000000000000000000000000000000000000000000000000000000000000000000000000000000000000000000000000000000000000000000000000000000000000000000000 .
b1111111 ,
1$
b111111000000000000000000000000 &
b111111000000000000000000000000 *
b111111000000000000000000000000 B
b111111101100000000000000000000 '
b111111101100000000000000000000 +
b111111101100000000000000000000 A
b0 l
b0 j
0n
b111111000000000000000000000000 ]
b111111000000000000000000000000 k
b111111101100000000000000000000 \
b111111101100000000000000000000 i
1^
1m
b10 e
0(
#330000
b1 g
b1 h
1"
19
b111111001100000000000000000000 #
b111111001100000000000000000000 )
b111111001100000000000000000000 >
b111111001100000000000000000000 D
b111111001100000000000000000000 Z
b111111001100000000000000000000 2
1(
#335000
0:
b0 3
b0 &
b0 *
b0 B
b0 '
b0 +
b0 A
0$
b111111000000000000000000000000 d
b111111101100000000000000000000 c
b111111101100000000000000000000 l
b111111000000000000000000000000 j
1n
b10 h
b0 ]
b0 k
b0 \
b0 i
0^
0m
b1 f
b1 e
0(
#340000
b111111101100000000000000000000 l
b111111000000000000000000000000 j
1n
0"
09
b0 #
b0 )
b0 >
b0 D
b0 Z
b0 2
1(
#345000
b111111001100000000000000000000 3
b10111 =
1:
b10110000000000000000000000000000000000000000000000000000000000000000000000000000000000000000000000000000000000000000000000000000000000000000000000000000000000000000000000000000000000000000000000000000000000000000000000000000000000000000000000000000000000000000000000000000000000000000000000000000000000000000000000000000000000000000000000000000000000000000000000000000000000000000000000000000000000000000000000000000000000000000000000000000000000000000000000000000000000000000000000000000000000000000000000000000000000000000000000000 /
b1111111 -
b10000000000000000000000000000000000000000000000000000000000000000000000000000000000000000000000000000000000000000000000000000000000000000000000000000000000000000000000000000000000000000000000000000000000000000000000000000000000000000000000000000000000000000000000000000000000000000000000000000000000000000000000000000000000000000000000000000000000000000000000000000000000000000000000000000000000000000000000000000000000000000000000000000000000000000000000000000000000000000000000000000000000000000000000000000000000000000000000000000 .
b1111110 ,
1$
b111111101100000000000000000000 &
b111111101100000000000000000000 *
b111111101100000000000000000000 B
b111111000000000000000000000000 '
b111111000000000000000000000000 +
b111111000000000000000000000000 A
b0 l
b0 j
0n
b111111101100000000000000000000 ]
b111111101100000000000000000000 k
b111111000000000000000000000000 \
b111111000000000000000000000000 i
1^
1m
b10 e
0(
#350000
b10 g
b1 h
1"
19
b111111001100000000000000000000 #
b111111001100000000000000000000 )
b111111001100000000000000000000 >
b111111001100000000000000000000 D
b111111001100000000000000000000 Z
b111111001100000000000000000000 2
1(
#355000
0:
b0 3
b0 &
b0 *
b0 B
b0 '
b0 +
b0 A
0$
b10111111101100000000000000000000 d
b111111000000000000000000000000 c
b10111111001100000000000000000000 `
b111111000000000000000000000000 l
b10111111101100000000000000000000 j
1n
b10 h
b0 ]
b0 k
b0 \
b0 i
0^
0m
b10 f
b1 e
0(
#360000
b111111000000000000000000000000 l
b10111111101100000000000000000000 j
1n
0"
09
b0 #
b0 )
b0 >
b0 D
b0 Z
b0 2
1(
